%YAML 1.1
%TAG !u! tag:unity3d.com,2011:
--- !u!1045 &1
EditorBuildSettings:
  m_ObjectHideFlags: 0
  serializedVersion: 2
  m_Scenes:
  - enabled: 1
    path: Assets/Scenes/Main Menu.unity
    guid: 07af98fbc43cc5f4fb746f98df43dca9
  - enabled: 1
    path: Assets/Scenes/Ingame.unity
    guid: 9fc0d4010bbf28b4594072e72b8655ab
  - enabled: 1
    path: Assets/Scenes/End Scene.unity
    guid: 23bb3286a5855d840a1fbc8ed72a5bd8
  m_configObjects: {}
